<?xml version="1.0" encoding="utf-8"?>
<!-- Generator: Adobe Illustrator 27.4.1, SVG Export Plug-In . SVG Version: 6.00 Build 0)  -->
<svg version="1.1" id="Layer_1" xmlns="http://www.w3.org/2000/svg" xmlns:xlink="http://www.w3.org/1999/xlink" x="0px" y="0px"
	 viewBox="0 0 595.3 472.3" style="enable-background:new 0 0 595.3 472.3;" xml:space="preserve">
<style type="text/css">
	.st0{fill:#ffffff;}
</style>
<path class="st0" d="M500.6,0h-405C43,0-0.1,43.1-0.1,95.7v235.6c0,77.8,63.1,141,141,141h313.5c77.8,0,141-63.1,141-141V94.7
	C596.3,42.1,553.2,0,500.6,0z M484.8,63.1L329.1,240.9c-7.4,9.5-18.9,14.7-31.6,14.7c-11.6,0-23.1-5.3-31.6-14.7L110.4,63.1H484.8z
	 M455.4,409.2H141.9c-43.1,0-77.8-34.7-77.8-77.8V103.1l155.7,178.8c20,23.1,48.4,35.8,78.9,35.8s58.9-12.6,78.9-35.8l155.7-178.8
	v228.3C533.2,374.5,498.5,409.2,455.4,409.2z"/>
</svg>
